<?xml version="1.0" encoding="UTF-8"?>
<svg width="24px" height="24px" viewBox="0 0 24 24" version="1.1" xmlns="http://www.w3.org/2000/svg" xmlns:xlink="http://www.w3.org/1999/xlink">
    <title>移动微博@2x</title>
    <g id="页面-1" stroke="none" stroke-width="1" fill="none" fill-rule="evenodd">
        <g id="移动端-文章页备份-2" transform="translate(-158.000000, -1616.000000)">
            <g id="移动端页尾" transform="translate(0.000000, 1517.000000)">
                <g id="编组-17" transform="translate(117.000000, 78.000000)">
                    <g id="移动微博" transform="translate(41.000000, 21.000000)">
                        <rect id="矩形" fill="#000000" fill-rule="nonzero" opacity="0" x="0" y="0" width="24" height="24"></rect>
                        <path d="M10.4584622,16.7419898 C8.09377065,16.8527091 6.1823224,15.6668 6.1823224,14.0890325 C6.1823224,12.5095157 8.09377065,11.2424945 10.4584622,11.1332976 C12.8244171,11.0243598 14.7398821,11.9993254 14.7398821,13.5759269 C14.7398821,15.153824 12.8244171,16.6348012 10.4584622,16.7419898 M15.4934089,11.6156623 C14.9314546,11.5067245 15.2046574,11.2043031 15.2046574,11.2043031 C15.2046574,11.2043031 15.7540757,10.2984319 15.0957196,9.64007581 C14.2798038,8.82441917 12.2975121,9.74396027 12.2975121,9.74396027 C11.5403248,9.97880979 11.7407406,9.63651258 11.8477995,9.05434498 C11.8477995,8.36839003 11.61295,7.20677578 9.59560894,7.89286027 C7.58089172,8.58234602 5.8507797,10.9989313 5.8507797,10.9989313 C4.64744321,12.6041357 4.80701131,13.844951 4.80701131,13.844951 C5.10713279,16.5846891 8.01797096,17.3365639 10.2819202,17.514596 C12.6640717,17.7013743 15.878465,16.6935297 16.8535277,14.6231613 C17.8282341,12.5488408 16.0567562,11.7281633 15.4934089,11.6156623 M10.7889684,14.1062656 C10.6382436,14.2187342 10.4528907,14.2033151 10.3739164,14.0681713 C10.2907959,13.9369472 10.3219256,13.7261333 10.4740109,13.6154139 C10.6501319,13.4840925 10.8336384,13.5219276 10.9129689,13.6535082 C10.9922995,13.7881336 10.9354821,13.9903309 10.7889684,14.1062656 M9.38670629,15.3003701 C8.94256538,15.35262 8.5847195,15.0966502 8.5847195,14.7248754 C8.5847195,14.3552709 8.90294867,13.9678178 9.34721916,13.9214957 C9.85702074,13.8729062 10.1889198,14.1670026 10.1889198,14.5383563 C10.1889198,14.9080904 9.82893601,15.2502581 9.38670629,15.3003701 M9.98659287,12.1740534 C7.60862016,12.4523096 7.8833131,14.6799786 7.8833131,14.6799786 C7.8833131,14.6799786 7.85892115,15.3855313 8.52093765,15.7446405 C9.91244525,16.4985237 11.3449625,16.0422354 12.0693679,15.1071456 C12.793417,14.1721854 12.3683556,11.8973197 9.98659287,12.1740534 M16.6512008,10.6513216 C16.8429028,10.6513216 17.0056454,10.5093753 17.0333414,10.324735 C17.0366455,10.3107088 17.038168,10.2984319 17.038168,10.28311 C17.3286688,7.67168063 14.8985756,8.12113399 14.8985756,8.12113399 C14.6825789,8.12113399 14.5098592,8.29563527 14.5098592,8.51338125 C14.5098592,8.72775839 14.6825789,8.90235685 14.8985756,8.90235685 C16.6442363,8.5169445 16.2586944,10.2623785 16.2586944,10.2623785 C16.2586944,10.4783428 16.4348478,10.6513216 16.6512008,10.6513216 M16.3680209,6.09290885 C15.5277132,5.89612118 14.6637261,6.06595786 14.4211671,6.11224751 C14.4026707,6.1141587 14.3849516,6.13161853 14.3680101,6.13527895 C14.3595231,6.13680143 14.3543402,6.14541797 14.3543402,6.14541797 C14.1154416,6.21286027 13.9411995,6.43403991 13.9411995,6.69509538 C13.9411995,7.00610093 14.1933792,7.26197351 14.507948,7.26197351 C14.507948,7.26197351 14.8140298,7.22096393 15.0211833,7.1397222 C15.2268143,7.05708757 16.967292,7.07811063 17.8315382,8.52983693 C18.3033752,9.58918636 18.039048,10.2984319 18.0062663,10.412423 C18.0062663,10.412423 17.8939272,10.687537 17.8939272,10.9586991 C17.8939272,11.2716159 18.146107,11.4682416 18.4588942,11.4682416 C18.7199496,11.4682416 18.9396068,11.4323177 19.0035183,10.9905739 L19.00679,10.9905739 C19.9349152,7.8974277 17.8713817,6.44404936 16.3680209,6.09290885" id="形状" fill="#FFFFFF" fill-rule="nonzero"></path>
                        <circle id="椭圆形" stroke="#FFFFFF" stroke-width="0.5" cx="12" cy="12" r="10.55"></circle>
                    </g>
                </g>
            </g>
        </g>
    </g>
</svg>