<?xml version="1.0" encoding="UTF-8"?>
<svg width="25px" height="25px" viewBox="0 0 25 25" version="1.1" xmlns="http://www.w3.org/2000/svg" xmlns:xlink="http://www.w3.org/1999/xlink">
    <title>编组 9备份@2x</title>
    <g id="页面-1" stroke="none" stroke-width="1" fill="none" fill-rule="evenodd">
        <g id="基金会首页" transform="translate(-1395.000000, -2.000000)">
            <g id="编组-9备份" transform="translate(1395.000000, 2.000000)">
                <rect id="矩形" x="0" y="0" width="25" height="25"></rect>
                <g id="编组-2" transform="translate(4.840518, 4.317817)" fill="#003B8C">
                    <rect id="矩形" transform="translate(8.053161, 8.053161) rotate(-315.000000) translate(-8.053161, -8.053161) " x="-1.94683944" y="6.66427167" width="20" height="2.77777778" rx="1.38888889"></rect>
                    <rect id="矩形备份-6" transform="translate(8.053161, 8.053161) rotate(-45.000000) translate(-8.053161, -8.053161) " x="-1.94683944" y="6.66427167" width="20" height="2.77777778" rx="1.38888889"></rect>
                </g>
            </g>
        </g>
    </g>
</svg>