<?xml version="1.0" encoding="UTF-8"?>
<svg width="16px" height="16px" viewBox="0 0 16 16" version="1.1" xmlns="http://www.w3.org/2000/svg" xmlns:xlink="http://www.w3.org/1999/xlink">
    <title>搜索@2x</title>
    <g id="页面-1" stroke="none" stroke-width="1" fill="none" fill-rule="evenodd">
        <g id="基金会首页" transform="translate(-1338.000000, -36.000000)" fill-rule="nonzero">
            <g id="搜索" transform="translate(1338.000000, 36.000000)">
                <rect id="矩形" fill="#000000" opacity="0" x="0" y="0" width="16" height="16"></rect>
                <path d="M7.41333333,13.8133333 C3.89333333,13.8133333 1.01333333,10.9333333 1.01333333,7.41333333 C1.01333333,3.89333333 3.89333333,1.01333333 7.41333333,1.01333333 C10.9333333,1.01333333 13.8133333,3.89333333 13.8133333,7.41333333 C13.8133333,10.9333333 10.9333333,13.8133333 7.41333333,13.8133333 Z M7.41333333,12.7466667 C10.3466667,12.7466667 12.7466667,10.3466667 12.7466667,7.41333333 C12.7466667,4.47999998 10.3466667,2.08 7.41333333,2.08 C4.47999998,2.08 2.08,4.48 2.08,7.41333333 C2.08,10.3466667 4.48,12.7466667 7.41333333,12.7466667 Z M11.36,13.6 C11.1466667,13.3866667 11.2,13.0133333 11.4133333,12.8533333 C11.6266667,12.6933333 12,12.6933333 12.16,12.9066667 L13.1733333,14.1333333 C13.3866667,14.3466667 13.3333333,14.72 13.12,14.88 C12.9066667,15.04 12.5333333,15.04 12.3733333,14.8266667 L11.36,13.6 Z" id="形状" fill="#565D64"></path>
            </g>
        </g>
    </g>
</svg>