<?xml version="1.0" encoding="UTF-8"?>
<svg width="9px" height="9px" viewBox="0 0 9 9" version="1.1" xmlns="http://www.w3.org/2000/svg" xmlns:xlink="http://www.w3.org/1999/xlink">
    <title>下拉@2x</title>
    <g id="页面-1" stroke="none" stroke-width="1" fill="none" fill-rule="evenodd">
        <g id="信息动态-新闻动态" transform="translate(-1164.000000, -402.000000)" fill-rule="nonzero">
            <g id="面包屑" transform="translate(1142.000000, 397.000000)">
                <g id="下拉" transform="translate(26.500000, 9.500000) rotate(-90.000000) translate(-26.500000, -9.500000) translate(22.000000, 5.000000)">
                    <rect id="矩形" fill="#000000" opacity="0" x="0" y="0" width="9" height="9"></rect>
                    <path d="M7.1595,3.06045 L4.8591,6.10695 C4.77405648,6.21955913 4.64111419,6.28575415 4.5,6.28575415 C4.35888581,6.28575415 4.22594352,6.21955913 4.1409,6.10695 L1.8405,3.0609 C1.78887729,2.99278339 1.78030501,2.90129998 1.81837472,2.82477891 C1.85644443,2.74825785 1.93458206,2.69991316 2.02005,2.69999974 L6.9795,2.69999974 C7.06488609,2.69987151 7.14298722,2.74808643 7.18113493,2.82447722 C7.21928264,2.90086801 7.21090258,2.99226954 7.1595,3.06045 L7.1595,3.06045 Z" id="路径" fill="#999999"></path>
                </g>
            </g>
        </g>
    </g>
</svg>